{
    "page": 2,
    "total_results": 10000,
    "total_pages": 500,
    "results": [
        {
            "popularity": 74.05,
            "vote_count": 2625,
            "video": false,
            "poster_path": "/vqzNJRH4YyquRiWxCCOH0aXggHI.jpg",
            "id": 290859,
            "adult": false,
            "backdrop_path": "/a6cDxdwaQIFjSkXf7uskg78ZyTq.jpg",
            "original_language": "en",
            "original_title": "Terminator: Dark Fate",
            "genre_ids": [
                28,
                12,
                878
            ],
            "title": "Terminator: Dark Fate",
            "vote_average": 6.5,
            "overview": "Decades after Sarah Connor prevented Judgment Day, a lethal new Terminator is sent to eliminate the future leader of the resistance. In a fight to save mankind, battle-hardened Sarah Connor teams up with an unexpected ally and an enhanced super soldier to stop the deadliest Terminator yet.",
            "release_date": "2019-10-23"
        },
        {
            "popularity": 77.395,
            "vote_count": 16,
            "video": false,
            "poster_path": "/7S9RvfMBWSTlUZ4VbxDY7oLeenk.jpg",
            "id": 581392,
            "adult": false,
            "backdrop_path": "/aWsVwgG324dFQS5xHEjB7OCOT9w.jpg",
            "original_language": "ko",
            "original_title": "반도",
            "genre_ids": [
                28,
                27,
                53
            ],
            "title": "Peninsula",
            "vote_average": 6,
            "overview": "Peninsula takes place four years after Train to Busan as the characters fight to escape the land that is in ruins due to an unprecedented disaster.",
            "release_date": "2020-07-15"
        },
        {
            "popularity": 70.488,
            "vote_count": 7908,
            "video": false,
            "poster_path": "/4q2NNj4S5dG2RLF9CpXsej7yXl.jpg",
            "id": 429617,
            "adult": false,
            "backdrop_path": "/5myQbDzw3l8K9yofUXRJ4UTVgam.jpg",
            "original_language": "en",
            "original_title": "Spider-Man: Far from Home",
            "genre_ids": [
                28,
                12,
                878
            ],
            "title": "Spider-Man: Far from Home",
            "vote_average": 7.5,
            "overview": "Peter Parker and his friends go on a summer trip to Europe. However, they will hardly be able to rest - Peter will have to agree to help Nick Fury uncover the mystery of creatures that cause natural disasters and destruction throughout the continent.",
            "release_date": "2019-06-28"
        },
        {
            "popularity": 60.505,
            "vote_count": 6,
            "video": false,
            "poster_path": "/xqbQtMffXwa3oprse4jiHBMBvdW.jpg",
            "id": 601844,
            "adult": false,
            "backdrop_path": "/qTrpw2ZUvN7ywUu1kieEsvNDrgQ.jpg",
            "original_language": "en",
            "original_title": "Becky",
            "genre_ids": [
                28,
                27,
                53
            ],
            "title": "Becky",
            "vote_average": 3.6,
            "overview": "A teenager's weekend at a lake house with her father takes a turn for the worse when a group of convicts wreaks havoc on their lives.",
            "release_date": "2020-07-23"
        },
        {
            "popularity": 64.532,
            "vote_count": 5298,
            "video": false,
            "poster_path": "/db32LaOibwEliAmSL2jjDF6oDdj.jpg",
            "id": 181812,
            "adult": false,
            "backdrop_path": "/SPkEiZGxq5aHWQ2Zw7AITwSEo2.jpg",
            "original_language": "en",
            "original_title": "Star Wars: The Rise of Skywalker",
            "genre_ids": [
                28,
                12,
                878
            ],
            "title": "Star Wars: The Rise of Skywalker",
            "vote_average": 6.6,
            "overview": "The surviving Resistance faces the First Order once again as the journey of Rey, Finn and Poe Dameron continues. With the power and knowledge of generations behind them, the final battle begins.",
            "release_date": "2019-12-18"
        },
        {
            "popularity": 62.261,
            "vote_count": 6429,
            "video": false,
            "poster_path": "/dzBtMocZuJbjLOXvrl4zGYigDzh.jpg",
            "id": 420818,
            "adult": false,
            "backdrop_path": "/nRXO2SnOA75OsWhNhXstHB8ZmI3.jpg",
            "original_language": "en",
            "original_title": "The Lion King",
            "genre_ids": [
                12,
                10402,
                10751
            ],
            "title": "The Lion King",
            "vote_average": 7.2,
            "overview": "Simba idolizes his father, King Mufasa, and takes to heart his own royal destiny. But not everyone in the kingdom celebrates the new cub's arrival. Scar, Mufasa's brother—and former heir to the throne—has plans of his own. The battle for Pride Rock is ravaged with betrayal, tragedy and drama, ultimately resulting in Simba's exile. With help from a curious pair of newfound friends, Simba will have to figure out how to grow up and take back what is rightfully his.",
            "release_date": "2019-07-12"
        },
        {
            "popularity": 62.136,
            "vote_count": 4,
            "video": false,
            "poster_path": "/tRUwtRGj3ju0YgE21dSDcxZGE0X.jpg",
            "id": 673174,
            "adult": false,
            "backdrop_path": "/61uvGsh4HmhEBDGIUuSEpIjYHdF.jpg",
            "original_language": "es",
            "original_title": "Ofrenda a la tormenta",
            "genre_ids": [
                80,
                53
            ],
            "title": "Offering to the Storm",
            "vote_average": 5.5,
            "overview": "Inspector Amaia Salazar confronts the origins of her nightmares as she unfolds the darkest secrets of the Baztan valley. Part 3 in the Baztan Trilogy.",
            "release_date": "2020-07-24"
        },
        {
            "popularity": 49.909,
            "vote_count": 14286,
            "video": false,
            "poster_path": "/or06FN3Dka5tukK1e9sl16pB3iy.jpg",
            "id": 299534,
            "adult": false,
            "backdrop_path": "/7RyHsO4yDXtBv1zUU3mTpHeQ0d5.jpg",
            "original_language": "en",
            "original_title": "Avengers: Endgame",
            "genre_ids": [
                28,
                12,
                878
            ],
            "title": "Avengers: Endgame",
            "vote_average": 8.3,
            "overview": "After the devastating events of Avengers: Infinity War, the universe is in ruins due to the efforts of the Mad Titan, Thanos. With the help of remaining allies, the Avengers must assemble once more in order to undo Thanos' actions and restore order to the universe once and for all, no matter what consequences may be in store.",
            "release_date": "2019-04-24"
        },
        {
            "popularity": 54.465,
            "vote_count": 2668,
            "video": false,
            "poster_path": "/f4aul3FyD3jv3v4bul1IrkWZvzq.jpg",
            "id": 508439,
            "adult": false,
            "backdrop_path": "/xFxk4vnirOtUxpOEWgA1MCRfy6J.jpg",
            "original_language": "en",
            "original_title": "Onward",
            "genre_ids": [
                12,
                16,
                35,
                14,
                10751
            ],
            "title": "Onward",
            "vote_average": 7.9,
            "overview": "In a suburban fantasy world, two teenage elf brothers embark on an extraordinary quest to discover if there is still a little magic left out there.",
            "release_date": "2020-02-29"
        },
        {
            "popularity": 50.996,
            "vote_count": 20,
            "video": false,
            "poster_path": "/jBeL6pPUPo0wnyTmiuxPegcibPf.jpg",
            "id": 608195,
            "adult": false,
            "backdrop_path": "/8LI4OEQGY2DIBTQQeRjYVKfL9Dl.jpg",
            "original_language": "en",
            "original_title": "Ghosts of War",
            "genre_ids": [
                14,
                27,
                53,
                10752
            ],
            "title": "Ghosts of War",
            "vote_average": 4.4,
            "overview": "A group of World War II American soldiers encounter a supernatural enemy as they occupy a French castle previously under Nazi control.",
            "release_date": "2020-07-03"
        },
        {
            "popularity": 49.8,
            "vote_count": 67,
            "video": false,
            "poster_path": "/3wZ0gxLqsPleneFSTZILmM3BE8Q.jpg",
            "id": 539181,
            "adult": false,
            "backdrop_path": "/vpUUznNzW85xo02H16RaSxRNS1.jpg",
            "original_language": "en",
            "original_title": "Relic",
            "genre_ids": [
                18,
                27
            ],
            "title": "Relic",
            "vote_average": 6.3,
            "overview": "When Edna—the elderly and widowed matriarch of the family—goes missing, her daughter and granddaughter travel to their remote family home to find her. Soon after her return, they start to discover a sinister presence haunting the house and taking control of Edna.",
            "release_date": "2020-07-03"
        },
        {
            "popularity": 57.44,
            "vote_count": 5540,
            "video": false,
            "poster_path": "/pjeMs3yqRmFL3giJy4PMXWZTTPa.jpg",
            "id": 330457,
            "adult": false,
            "backdrop_path": "/xJWPZIYOEFIjZpBL7SVBGnzRYXp.jpg",
            "original_language": "en",
            "original_title": "Frozen II",
            "genre_ids": [
                12,
                16,
                10751
            ],
            "title": "Frozen II",
            "vote_average": 7.3,
            "overview": "Elsa, Anna, Kristoff and Olaf head far into the forest to learn the truth about an ancient mystery of their kingdom.",
            "release_date": "2019-11-20"
        },
        {
            "popularity": 57.928,
            "vote_count": 4782,
            "video": false,
            "poster_path": "/7Dktk2ST6aL8h9Oe5rpk903VLhx.jpg",
            "id": 454983,
            "adult": false,
            "backdrop_path": "/fHEu7n8WJKkVuUPEen6Ndyz642g.jpg",
            "original_language": "en",
            "original_title": "The Kissing Booth",
            "genre_ids": [
                35,
                10749
            ],
            "title": "The Kissing Booth",
            "vote_average": 7.3,
            "overview": "When teenager Elle's first kiss leads to a forbidden romance with the hottest boy in high school, she risks her relationship with her best friend.",
            "release_date": "2018-05-11"
        },
        {
            "popularity": 50.125,
            "vote_count": 5,
            "video": false,
            "poster_path": "/27eA9xGba61LtKr7gJRnhtDDgEP.jpg",
            "id": 651586,
            "adult": false,
            "backdrop_path": "/1iEDKZHREDetZcOoqioZewcHOw9.jpg",
            "original_language": "es",
            "original_title": "Superagente Makey",
            "genre_ids": [
                28,
                35
            ],
            "title": "Superagente Makey",
            "vote_average": 4.2,
            "overview": "Makey is a humble police officer that, unexpectedly, gets caught in the middle of a dangerous international drug operation in the Costa del Sol, Spain.",
            "release_date": "2020-07-17"
        },
        {
            "popularity": 59.623,
            "vote_count": 5821,
            "video": false,
            "poster_path": "/iZf0KyrE25z1sage4SYFLCCrMi9.jpg",
            "id": 530915,
            "adult": false,
            "backdrop_path": "/cqa3sa4c4jevgnEJwq3CMF8UfTG.jpg",
            "original_language": "en",
            "original_title": "1917",
            "genre_ids": [
                28,
                18,
                36,
                10752
            ],
            "title": "1917",
            "vote_average": 7.9,
            "overview": "At the height of the First World War, two young British soldiers must cross enemy territory and deliver a message that will stop a deadly attack on hundreds of soldiers.",
            "release_date": "2019-12-25"
        },
        {
            "popularity": 57.338,
            "vote_count": 0,
            "video": false,
            "poster_path": "/dXxTJIkjCdNomQBFVqRhrQZTFWI.jpg",
            "id": 714521,
            "adult": false,
            "backdrop_path": "/scZ9v26jssBHkl0I89tDnJLlBl0.jpg",
            "original_language": "en",
            "original_title": "The Big Ugly",
            "genre_ids": [
                18
            ],
            "title": "The Big Ugly",
            "vote_average": 0,
            "overview": "Neeyln has always been the loyal enforcer for crime boss Harris back in London, taking care of problems and people that disrupt his illicit business. When Harris strikes a deal with an old friend -- American oilman Preston -- they find themselves in the wild hills of West Virginia. Contracts are signed and the whiskey flows in celebration, but overnight Neelyn's girlfriend disappears, last seen with Preston's wayward son Junior. Lines are drawn between family and friends, but nothing will stop Neelyn from getting answers -- and retribution.",
            "release_date": "2020-07-24"
        },
        {
            "popularity": 52.053,
            "vote_count": 5011,
            "video": false,
            "poster_path": "/azL2ThbJMIkts3ZMt3j1YgBUeDB.jpg",
            "id": 98566,
            "adult": false,
            "backdrop_path": "/3eGlcdyxqEN57TtU8ypx52V4JMs.jpg",
            "original_language": "en",
            "original_title": "Teenage Mutant Ninja Turtles",
            "genre_ids": [
                28,
                12,
                35,
                14,
                878
            ],
            "title": "Teenage Mutant Ninja Turtles",
            "vote_average": 5.9,
            "overview": "The city needs heroes. Darkness has settled over New York City as Shredder and his evil Foot Clan have an iron grip on everything from the police to the politicians. The future is grim until four unlikely outcast brothers rise from the sewers and discover their destiny as Teenage Mutant Ninja Turtles. The Turtles must work with fearless reporter April and her wise-cracking cameraman Vern Fenwick to save the city and unravel Shredder's diabolical plan.",
            "release_date": "2014-08-07"
        },
        {
            "popularity": 40.379,
            "vote_count": 17449,
            "video": false,
            "poster_path": "/f89U3ADr1oiB1s9GkdPOEpXUk5H.jpg",
            "id": 603,
            "adult": false,
            "backdrop_path": "/ByDf0zjLSumz1MP1cDEo2JWVtU.jpg",
            "original_language": "en",
            "original_title": "The Matrix",
            "genre_ids": [
                28,
                878
            ],
            "title": "The Matrix",
            "vote_average": 8.1,
            "overview": "Set in the 22nd century, The Matrix tells the story of a computer hacker who joins a group of underground insurgents fighting the vast and powerful computers who now rule the earth.",
            "release_date": "1999-03-30"
        },
        {
            "popularity": 55.028,
            "vote_count": 163,
            "video": false,
            "poster_path": "/vDkct38sSFSWJIATlfJw0l3QOIR.jpg",
            "id": 20982,
            "adult": false,
            "backdrop_path": null,
            "original_language": "ja",
            "original_title": "劇場版 NARUTO -ナルト- 疾風伝",
            "genre_ids": [
                28,
                12,
                16,
                14,
                10751
            ],
            "title": "Naruto Shippuden the Movie",
            "vote_average": 6.9,
            "overview": "Demons that once almost destroyed the world, are revived by someone. To prevent the world from being destroyed, the demon has to be sealed and the only one who can do it is the shrine maiden Shion from the country of demons, who has two powers; one is sealing demons and the other is predicting the deaths of humans. This time Naruto's mission is to guard Shion, but she predicts Naruto's death. The only way to escape it, is to get away from Shion, which would leave her unguarded, then the demon, whose only goal is to kill Shion will do so, thus meaning the end of the world. Naruto decides to challenge this \"prediction of death.\"",
            "release_date": "2007-08-04"
        },
        {
            "popularity": 52.303,
            "vote_count": 682,
            "video": false,
            "poster_path": "/tI8ocADh22GtQFV28vGHaBZVb0U.jpg",
            "id": 475430,
            "adult": false,
            "backdrop_path": "/o0F8xAt8YuEm5mEZviX5pEFC12y.jpg",
            "original_language": "en",
            "original_title": "Artemis Fowl",
            "genre_ids": [
                12,
                14,
                878,
                10751
            ],
            "title": "Artemis Fowl",
            "vote_average": 5.9,
            "overview": "Artemis Fowl is a 12-year-old genius and descendant of a long line of criminal masterminds. He soon finds himself in an epic battle against a race of powerful underground fairies who may be behind his father's disappearance.",
            "release_date": "2020-06-12"
        }
    ]
}